[
  {
    "caption": "a man is a wad of dough into a bowl", 
    "id": "ScdUht-pM6s_53_63.avi"
  }, 
  {
    "caption": "a man is a fish", 
    "id": "wkgGxsuNVSg_34_41.avi"
  }, 
  {
    "caption": "two men are doing platform", 
    "id": "BtQtRGI0F2Q_15_20.avi"
  }, 
  {
    "caption": "a man is some vegetables", 
    "id": "k06Ge9ANKM8_5_16.avi"
  }, 
  {
    "caption": "a man is reading a cigarette", 
    "id": "sZf3VDsdDPM_107_114.avi"
  }, 
  {
    "caption": "a cat is", 
    "id": "shPymuahrsc_5_12.avi"
  }, 
  {
    "caption": "a girl is playing a glass", 
    "id": "XOAgUVVwKEA_8_20.avi"
  }, 
  {
    "caption": "a panda is sliding on his belly", 
    "id": "ufFT2BWh3BQ_0_8.avi"
  }, 
  {
    "caption": "a man is running on a river", 
    "id": "5YJaS2Eswg0_22_26.avi"
  }, 
  {
    "caption": "a man is some meat", 
    "id": "lw7pTwpx0K0_38_48.avi"
  }, 
  {
    "caption": "a woman is brushing some meat", 
    "id": "UbmZAe5u5FI_132_141.avi"
  }, 
  {
    "caption": "a man is a ball", 
    "id": "xCFCXzDUGjY_5_9.avi"
  }, 
  {
    "caption": "a man is showing a white off a", 
    "id": "He7Ge7Sogrk_47_70.avi"
  }, 
  {
    "caption": "a woman is using a wine", 
    "id": "tJHUH9tpqPg_113_118.avi"
  }, 
  {
    "caption": "a man is cutting an onion", 
    "id": "n016q1w8Q30_2_11.avi"
  }, 
  {
    "caption": "people are running", 
    "id": "RjpbFlOHFps_8_25.avi"
  }, 
  {
    "caption": "a man is a gun", 
    "id": "6JnGBs88sL0_4_10.avi"
  }, 
  {
    "caption": "a man is playing", 
    "id": "EpMuCrbxE8A_107_115.avi"
  }, 
  {
    "caption": "a man is racing", 
    "id": "HAjwXjwN9-A_16_24.avi"
  }, 
  {
    "caption": "a man is a rock", 
    "id": "4xVGpDmA4lE_23_33.avi"
  }, 
  {
    "caption": "a man is riding a motorcycle", 
    "id": "k5OKBX2e7xA_19_32.avi"
  }, 
  {
    "caption": "a man is shooting a woman", 
    "id": "Jag7oTemldY_12_25.avi"
  }, 
  {
    "caption": "a man is adding a plate of pasta", 
    "id": "8MVo7fje_oE_125_130.avi"
  }, 
  {
    "caption": "a woman is adding some meat", 
    "id": "bqMmyY1ImkI_0_14.avi"
  }, 
  {
    "caption": "a woman is cutting a vegetable", 
    "id": "jTnrm338_KY_34_42.avi"
  }, 
  {
    "caption": "a man is shooting a gun", 
    "id": "UdcObAQ5OOM_15_30.avi"
  }, 
  {
    "caption": "a dog is walking", 
    "id": "4PcL6-mjRNk_11_18.avi"
  }, 
  {
    "caption": "a cat is playing with a toy", 
    "id": "3qqEKTPxLNs_1_15.avi"
  }, 
  {
    "caption": "a man is putting a box", 
    "id": "glrijRGnmc0_211_215.avi"
  }, 
  {
    "caption": "a man is running on a field", 
    "id": "q7pOFn8s4zc_263_273.avi"
  }, 
  {
    "caption": "a man is peeling a meal", 
    "id": "mtrCf667KDk_134_176.avi"
  }, 
  {
    "caption": "a woman is adding water to a bowl", 
    "id": "0lh_UWF9ZP4_62_69.avi"
  }, 
  {
    "caption": "a man is walking in the dark", 
    "id": "JntMAcTlOF0_50_70.avi"
  }, 
  {
    "caption": "a man is playing an electric guitar", 
    "id": "7NNg0_n-bS8_21_30.avi"
  }, 
  {
    "caption": "a woman is cutting tofu", 
    "id": "IhwPQL9dFYc_124_129.avi"
  }, 
  {
    "caption": "a man is singing", 
    "id": "BAf3LXFUaGs_28_38.avi"
  }, 
  {
    "caption": "a man is speaking to a phone", 
    "id": "6q1dX6thX3E_286_295.avi"
  }, 
  {
    "caption": "a man is slicing a", 
    "id": "RZL9irxnhZ0_34_40.avi"
  }, 
  {
    "caption": "a man is a ball", 
    "id": "WWf0Z6ak3Dg_5_15.avi"
  }, 
  {
    "caption": "a woman is shrimp", 
    "id": "PeUHy0A1GF0_114_121.avi"
  }, 
  {
    "caption": "a man is performing a motorcycle", 
    "id": "klteYv1Uv9A_27_33.avi"
  }, 
  {
    "caption": "a man is pouring pancake in a pot", 
    "id": "e-j59PqJjSM_405_416.avi"
  }, 
  {
    "caption": "a person is driving a car", 
    "id": "778mkceE0UQ_40_46.avi"
  }, 
  {
    "caption": "a is riding a motorcycle", 
    "id": "77iDIp40m9E_126_131.avi"
  }, 
  {
    "caption": "a man is cutting an onion", 
    "id": "e-j59PqJjSM_50_98.avi"
  }, 
  {
    "caption": "a person is cutting a", 
    "id": "Dgf0VHMEtNs_57_66.avi"
  }, 
  {
    "caption": "a cat is playing with a small bottle", 
    "id": "f9Won2JpOEU_60_80.avi"
  }, 
  {
    "caption": "a man is riding a horse", 
    "id": "dfOuTx66bJU_34_39.avi"
  }, 
  {
    "caption": "a woman is cutting a", 
    "id": "04Gt01vatkk_248_265.avi"
  }, 
  {
    "caption": "a boy is attacking a boy", 
    "id": "rl1rVk_xIOs_1_16.avi"
  }
]